Lista1/questao001/simulation/qsim/Teste.msim.vcd
$comment
	File created using the following command:
		vcd file Teste.msim.vcd -direction
$end
$date
	Sat Jul 13 10:50:09 2024
$end
$version
	ModelSim Version 10.1d
$end
$timescale
	1ps
$end
$scope module Teste_vlg_vec_tst $end
$var reg 1 ! A $end
$var reg 1 " B $end
$var wire 1 # Y $end
$var wire 1 $ sampler $end
$scope module i1 $end
$var wire 1 % gnd $end
$var wire 1 & vcc $end
$var wire 1 ' unknown $end
$var tri1 1 ( devclrn $end
$var tri1 1 ) devpor $end
$var tri1 1 * devoe $end
$var wire 1 + B~combout $end
$var wire 1 , A~combout $end
$var wire 1 - Y~0_combout $end
$upscope $end
$upscope $end
$enddefinitions $end
#0
$dumpvars
0!
0"
0#
x$
0%
1&
x'
1(
1)
1*
0+
0,
0-
$end
#10000
1"
1+
0$
1-
1#
#20000
1!
0"
1,
0+
1$
#30000
1"
1+
0$
0-
0#
#40000
0!
0"
0,
0+
1$
#50000
1"
1+
0$
1-
1#
#60000
1!
0"
1,
0+
1$
#70000
1"
1+
0$
0-
0#
